<svg width="100%" height="100%" viewBox="0 0 86 86" version="1.1" xmlns="http://www.w3.org/2000/svg" xmlns:xlink="http://www.w3.org/1999/xlink" xml:space="preserve" style="fill-rule:evenodd;clip-rule:evenodd;">
    <g id="books" transform="matrix(1,0,0,1,-0.827168,-1.23477)">
        <path id="path6138" d="M5.476,49.449C3.292,52.952 3.924,55.399 4.698,57.793L40.124,82.117L73.005,68.258L70.459,66.561L69.893,63.732C70.798,62.858 71.651,61.995 72.227,61.187C72.385,60.224 73.113,58.976 71.873,58.712L34.326,40.327L8.658,48.459L7.456,49.59L5.476,49.449Z" style="fill:rgb(160,44,44);stroke:rgb(255,102,0);stroke-width:0.23px;"/>
        <path id="path6140" d="M4.557,51.924C16.375,58.658 27.48,70.741 38.498,76.602L39.417,81.693L4.203,57.651C4.102,55.742 3.283,53.833 4.557,51.924Z" style="fill:none;"/>
        <path id="path6316" d="M40.92,72.91C40.185,75.504 40.312,77.811 41.274,79.839L70.76,67.889C70.567,68.662 69.657,63.617 70.018,63.329C70.278,63.12 72.528,61.313 72.316,61.172L43.324,72.344C42.732,72.951 42.07,73.419 40.92,72.91Z" style="fill:rgb(244,238,215);stroke:black;stroke-width:0.23px;"/>
        <path id="path4197" d="M72.883,60.389L43.364,71.718C43.138,71.906 42.495,72.618 42.081,72.705C41.594,72.807 41.079,72.162 40.472,72.896C39.962,74.352 39.901,75.352 40.069,76.71C40.289,78.491 40.396,78.999 40.983,80.577L70.92,68.433C71.333,67.138 70.725,65.865 70.53,64.713C70.465,64.284 70.475,63.905 70.675,63.427C70.875,62.949 71.571,62.64 72.308,61.83C72.744,61.35 72.841,60.87 72.883,60.389ZM71.175,61.916C71.279,62.483 70.252,62.402 69.751,63.032C69.646,63.164 69.566,63.315 69.5,63.472C69.118,63.602 67.654,64.098 66.875,64.386C63.632,65.585 57.16,68.04 57.241,68.235C57.321,68.429 63.676,65.749 66.911,64.694C67.74,64.423 69.017,64.027 69.367,63.918C69.268,64.346 69.254,64.754 69.28,64.925C69.439,65.974 69.591,66.706 69.575,67.441L41.622,79.06C41.214,78.074 40.931,77.14 40.872,76.135C41.187,76.017 48.347,73.33 52.108,71.738C55.412,70.339 62.299,67.906 62.166,67.708C62.032,67.51 55.195,69.921 51.9,71.419C48.364,73.027 41.719,75.469 40.858,75.708C40.863,75.077 40.957,74.413 41.178,73.682C41.385,73.708 42.173,73.748 42.384,73.714C42.855,73.64 43.187,73.23 43.658,72.764C44.708,72.364 71.175,61.916 71.175,61.916L71.175,61.916ZM57.284,71.244C53.79,72.653 44.632,76.481 44.616,76.658C44.599,76.836 53.96,73.006 57.42,71.597C60.602,70.302 68.599,67.327 68.003,67.298C67.408,67.268 60.244,70.051 57.284,71.244Z" style="fill:rgb(222,205,135);"/>
        <path id="path4199" d="M34.52,39.541L7.755,47.778C7.755,47.778 7.417,48.64 7.033,48.808C6.472,49.053 5.216,48.56 5.216,48.56C4.099,49.076 3.277,51.324 3.15,53.397C3.023,55.47 3.445,57.513 4.128,58.277L39.526,82.928C40.056,83.228 40.326,83.136 40.595,83.046L73.769,69.355C74.425,69.058 74.458,68.355 73.901,67.597L70.648,65.339C70.911,66.521 71.104,67.636 70.967,68.285C64.488,70.881 49.414,76.988 40.833,80.65C40.165,79.72 40.09,78.294 39.959,77.036C39.813,75.636 39.952,73.759 40.503,72.928C41.054,72.097 41.721,72.919 42.156,72.716C42.507,72.552 43.047,72.179 43.339,71.743C50.005,69.511 64.693,63.579 73.65,60.093C74.294,59.431 73.941,59.019 73.539,58.619L34.52,39.541ZM34.389,41.207L70.876,59.414L42.359,70.305C42.359,70.305 41.969,70.958 41.619,71.083C41.316,71.191 40.852,70.771 40.52,70.657C40.112,70.516 39.432,70.774 39.141,71.228C38.446,72.311 38.026,73.635 37.805,74.897C37.538,76.416 37.75,77.892 38.153,79.232L6.286,57.305C5.558,56.81 4.844,55.338 4.939,53.786C5.036,52.213 5.421,50.592 6.453,50.094C6.453,50.094 7.618,50.506 7.98,50.397C8.387,50.275 8.88,49.402 8.88,49.402L34.389,41.207ZM8.708,51.265C8.09,51.523 18.437,57.573 23.872,60.824C29.105,63.954 40.312,70.559 40.642,70.036C40.972,69.513 29.711,63.292 24.498,60.163C19.223,56.996 9.326,51.006 8.708,51.265Z" style="fill:rgb(80,22,22);"/>
        <path id="path6036" d="M6.749,35.59L9.365,34.882L37.225,34.67L68.267,53.621L66.994,54.328L65.721,58.076C66.087,59.089 66.057,60.893 66.924,60.904L28.174,70.45L4.981,43.156C5.324,40.552 4.374,37.517 6.749,35.59Z" style="fill:rgb(0,170,0);stroke:rgb(255,0,0);stroke-width:0.23px;"/>
        <path id="path6034" d="M5.947,37.285C14.244,45.499 20.005,54.968 26.993,63.658C26.872,65.716 26.64,67.364 29.447,70.521C28.528,70.128 27.608,70.052 26.689,68.965L5.264,43.297L5.947,37.285Z" style="fill:none;"/>
        <path id="path6303" d="M29.324,61.455C30.262,61.578 31.174,61.891 32.293,60.748L66.305,55.374C65.474,57.139 65.251,58.817 65.74,60.394L30.101,68.526C28.806,67.724 28.217,66.569 28.051,65.202C27.899,64.169 27.984,63.047 29.324,61.455Z" style="fill:rgb(244,238,215);stroke:black;stroke-width:0.23px;"/>
        <path id="path4193" d="M67.962,54.577C55.827,56.32 38.298,58.966 31.917,60.168C31.661,60.519 31.231,60.824 30.686,60.95C30.48,60.998 29.976,60.902 29.408,60.852C28.064,61.727 27.491,63.526 27.672,65.188C27.903,67.315 28.771,68.135 29.916,68.953C42.204,66.228 54.492,63.985 66.78,60.674C65.891,57.912 66.725,56.278 67.962,54.577ZM65.356,56.1C64.892,57.002 64.815,57.599 64.947,58.611C64.686,58.66 61.771,59.206 60.211,59.511C58.314,59.882 54.626,60.418 54.62,60.693C54.614,60.967 58.457,60.338 60.341,59.949C61.731,59.661 64.321,59.349 64.984,58.85C65.019,59.086 65.052,59.311 65.105,59.6L30.291,67.794C29.842,67.522 29.456,66.99 29.178,66.425C29.775,66.309 35.37,65.223 38.322,64.763C41.721,64.233 48.49,62.773 48.397,62.53C48.303,62.287 41.936,63.922 38.267,64.305C35.215,64.624 29.507,65.812 28.964,65.925C28.857,65.626 28.779,65.335 28.762,65.088C28.676,63.804 28.644,62.937 29.769,61.802C30.012,62 30.548,62.129 30.978,62.036C31.603,61.902 31.889,61.741 32.276,61.313L65.356,56.1ZM60.922,58.111C60.309,58 52.096,59.555 47.855,60.227C42.023,61.151 30.301,62.685 30.436,63.025C30.57,63.366 42.267,61.538 48.147,60.566C52.611,59.828 61.535,58.222 60.922,58.111Z" style="fill:rgb(222,205,135);"/>
        <path id="path4191" d="M37.455,33.925L8.944,34.202C8.758,34.466 8.316,34.855 8.1,34.903C7.873,34.955 7.257,34.455 6.88,34.6C5.168,35.26 4.992,37.269 4.698,38.383C4.17,40.386 4.641,43.431 5.244,44.336C6.144,45.386 26.677,69.695 27.461,70.468C28.366,71.36 29.195,71.482 30.705,71.088C37.445,69.327 57.06,65.054 69.451,61.682C70.182,61.299 69.882,60.667 69.347,60.16L66.375,58.355C66.389,59.168 66.504,59.908 66.744,60.671C55.228,63.326 41.514,66.314 29.834,68.943C28.818,68.585 27.789,66.991 27.672,66.16C27.347,63.86 27.78,62.77 28.222,62.13C28.662,61.493 29,61.107 29.403,60.857C29.848,60.902 30.507,61.092 30.898,60.946C31.314,60.79 31.604,60.487 31.909,60.203L68.972,54.419C69.548,53.984 69.177,53.375 68.891,53.114L37.455,33.925ZM37.12,35.591L66.111,53.307L31.022,58.702C30.635,58.899 30.5,59.348 30.328,59.413C30.156,59.477 29.603,59.347 29.137,59.302C28.17,59.587 26.916,61.342 26.611,62.588C25.913,65.438 26.45,66.907 27.717,68.935L6.63,43.599C6.12,42.823 5.832,41.523 6.17,39.41C6.338,38.361 6.693,37.347 7.233,36.483C7.574,36.509 7.878,36.751 8.447,36.568C9.18,36.331 9.167,35.773 9.342,35.707L37.12,35.591ZM8.955,37.474C8.561,37.833 15.544,44.522 18.987,48.107C22.472,51.734 28.981,59.256 29.498,58.857C30.016,58.458 23.103,51.138 19.633,47.528C16.279,44.04 9.348,37.116 8.955,37.474Z" style="fill:rgb(0,85,0);"/>
        <path id="path5922" d="M36.306,23.427L5.9,27.741C4.872,30.394 3.245,32.717 5.829,37.357L37.649,61.54L73.57,50.863L70.883,49.378C70.948,46.591 71.652,44.154 73.146,41.176L36.306,23.427Z" style="fill:rgb(0,85,212);stroke:rgb(255,102,0);stroke-width:0.23px;"/>
        <path id="path5924" d="M4.557,31.771C14.394,40.9 25.197,47.814 35.387,55.176C35.587,57.352 35.805,59.522 37.296,61.328L5.617,37.074C4.518,35.431 4.555,33.598 4.557,31.771Z" style="fill:none;"/>
        <path id="path6290" d="M38.233,51.909C37.513,53.139 37.282,54.615 37.314,56.222L38.304,58.98L71.184,50.353L70.901,46.959L71.891,44.272L38.233,51.909Z" style="fill:rgb(244,238,215);stroke:black;stroke-width:0.23px;"/>
        <path id="path4185" d="M73.542,43.221L71.928,43.583L38.231,51.068C37.613,51.734 36.577,53.058 36.9,55.936C37.065,57.411 37.44,58.736 38.342,59.914L71.65,50.814C71.787,49.959 71.663,48.244 71.77,47.007C71.877,45.769 72.281,45.322 72.691,44.639L73.542,43.221ZM70.916,45.002C70.744,45.617 70.487,46.19 70.367,46.83C69.963,46.816 69.364,46.804 69.014,46.877C66.954,47.306 62.846,48.448 62.966,48.685C63.085,48.922 66.809,47.569 69.164,47.422C69.505,47.401 69.951,47.425 70.291,47.447C70.258,47.832 70.242,48.147 70.228,48.455C66.568,49.377 62.497,50.367 58.848,51.264C54.15,52.42 47.158,53.938 47.248,54.328C47.338,54.719 54.324,52.815 58.987,51.668C62.634,50.77 66.554,49.918 70.214,49.003C70.218,49.252 70.233,49.478 70.273,49.657L39.203,58.102C38.225,57.709 38.219,56.662 38.112,55.858C37.951,54.643 37.95,53.242 38.755,52.593L70.916,45.002ZM53.091,50.436C47.965,51.702 38.582,54.185 38.666,54.433C38.749,54.682 48.1,52.155 53.164,50.78C55.842,50.053 61.332,48.706 60.843,48.576C60.354,48.446 55.597,49.817 53.091,50.436Z" style="fill:rgb(222,205,135);"/>
        <path id="path4187" d="M36.333,22.944L6.161,26.95C4.611,27.394 3.727,30.781 3.794,32.828C3.846,34.43 4.729,36.966 5.731,38.075L37.859,62.51L75.106,51.689C75.575,51.08 75.345,50.749 75.169,50.397L71.662,48.269C71.662,48.269 71.745,49.799 71.645,50.799C62.069,53.312 46.927,57.463 37.973,59.985C37.422,59.431 36.67,57.292 36.628,55.921C36.556,53.58 36.912,52.098 37.82,51.277L75.25,42.849C75.684,42.567 75.735,41.874 75.101,41.261L36.333,22.944ZM36.231,24.235L71.797,41.616L36.205,49.535C34.95,51.066 34.635,52.746 34.664,54.427C34.688,55.832 35.07,57.903 35.742,59L6.756,36.646C6.037,35.998 5.515,33.944 5.512,33.027C5.509,31.613 5.992,30.22 6.819,28.446L36.231,24.235ZM8.408,29.469C7.667,29.792 20.353,38.833 20.353,38.833C20.353,38.833 35.085,49.562 35.264,49.063C35.443,48.564 21.397,37.843 21.397,37.843C21.397,37.843 9.149,29.145 8.408,29.469Z" style="fill:rgb(0,34,85);"/>
        <path id="path5818" d="M41.043,14.518L11.698,22.862C11.698,22.862 11.345,23.993 10.921,23.922C10.496,23.852 8.729,23.852 8.729,23.852C7.155,25.858 7.12,27.761 8.375,29.579L50.236,50.085L81.49,38.772L80.076,37.569L81.561,35.377L81.631,31.913L41.043,14.518Z" style="fill:rgb(255,204,0);stroke:rgb(255,102,0);stroke-width:0.23px;"/>
        <path id="path5820" d="M8.234,26.539C22.046,34.095 35.908,40.321 49.72,45.95L50.66,50.297L8.234,29.791L8.234,26.539Z" style="fill:none;"/>
        <path id="path4175" d="M41.067,14.002C31.201,16.747 20.049,19.699 11.07,22.066C10.895,22.177 10.831,22.609 10.448,23C10.282,23.171 9.582,22.811 9.334,22.839C8.946,22.884 8.498,23.21 8.184,23.486C7.757,23.863 7.629,24.232 7.439,24.757C7.243,25.298 7.248,25.9 7.205,26.575C7.117,27.926 7.368,29.508 7.933,30.25C21.787,37.104 36.62,44.732 49.881,51.186C50.16,51.402 50.783,51.435 51.137,51.375C51.492,51.315 51.794,51.197 51.905,50.96C51.975,50.809 52.186,50.521 52.416,50.371C52.65,50.218 52.871,50.606 53.398,50.597L82.369,39.513C82.692,39.389 82.904,38.921 82.37,38.491L80.523,37.303L79.598,38.689C70.995,41.646 61.278,45.212 52.18,48.544C51.485,48.396 50.681,46.932 50.639,46.243C50.592,45.473 50.981,44.589 51.22,44.208C61.318,40.447 72.313,36.709 83.242,32.835C83.755,32.545 83.607,32.09 83.162,31.561L41.067,14.002ZM41.019,15.28L80.308,32.414L51.003,42.516C50.331,42.769 49.916,43.312 49.562,43.828C49.103,44.5 48.787,45.502 48.861,46.702C48.929,47.812 49.205,48.559 49.58,49.16L9.172,29.143C8.639,28.358 8.66,27.644 8.712,26.703C8.753,25.964 8.956,25.316 9.389,24.768C9.44,24.703 10.017,24.263 10.617,24.603C10.865,24.744 11.107,24.749 11.53,24.446C12.05,24.072 11.869,23.73 12.228,23.441L41.019,15.28L41.019,15.28ZM11.97,24.399C11.869,24.38 11.809,24.384 11.792,24.411C11.518,24.846 23.328,30.462 29.181,33.318C35.65,36.473 48.539,42.768 48.769,42.405C48.998,42.042 35.94,35.708 29.431,32.549C23.97,29.898 13.485,24.682 11.97,24.399Z" style="fill:rgb(170,136,0);"/>
        <path id="path6277" d="M81.72,33.665L51.365,44.546C51.065,45.826 51.08,46.191 51.373,46.722L52.305,48.09L79.782,38.228C81.084,36.618 81.881,35.076 81.72,33.665L81.72,33.665Z" style="fill:rgb(244,238,215);stroke:black;stroke-width:0.23px;"/>
        <path id="path4181" d="M82.234,33.21C71.545,36.706 56.748,42.247 51.314,44.116C50.699,44.792 50.744,45.652 50.948,46.444C51.153,47.236 51.805,48.339 52.278,48.53L79.845,38.65C80.055,38.36 80.938,37.542 81.528,36.635C81.823,36.181 82.051,35.434 82.167,34.939C82.283,34.445 82.473,33.567 82.234,33.21L82.234,33.21ZM81.206,34.227C81.41,34.875 80.96,35.383 80.655,35.883C80.168,36.678 79.521,37.474 79.094,38.044L52.641,47.53C52.214,47.307 51.872,46.821 51.723,46.244C51.571,45.652 51.621,45.018 51.792,44.747L81.206,34.227ZM67.184,39.868C62.588,41.545 53.339,44.532 53.472,45.028C53.605,45.525 62.795,41.909 67.433,40.21C71.796,38.611 80.094,35.574 79.929,35.37C79.764,35.166 71.316,38.36 67.184,39.868ZM79.1,37.146C79,37.022 75.667,38.184 74.028,38.808C72.485,39.396 52.523,46.539 52.616,46.785C52.708,47.03 72.729,39.744 74.291,39.157C75.916,38.545 79.2,37.269 79.1,37.146Z" style="fill:rgb(222,205,135);"/>
        <path id="path4323" d="M43.448,4.83L10.638,11.336C8.239,13.654 7.384,16.561 8.941,20.387L42.245,42.59L80.924,32.832L77.53,30.428L77.247,26.751L80.359,22.508L43.448,4.83Z" style="fill:rgb(212,0,0);stroke:rgb(255,102,0);stroke-width:0.23px;"/>
        <path id="path4327" d="M8.799,17.275C19.689,24.33 30.578,30.185 41.468,35.943L42.811,42.448L40.548,41.741L8.658,20.175L8.799,17.275Z" style="fill:none;"/>
        <path id="path6264" d="M44.385,33.312L78.397,24.827C76.935,28.053 77.565,29.449 77.478,31.473L43.536,40.524L42.9,37.342L44.385,33.312Z" style="fill:rgb(244,238,215);stroke:black;stroke-width:0.23px;"/>
        <path id="path4179" d="M80.241,23.853C80.13,23.866 80.009,23.921 79.947,23.936L44.258,32.622C43.43,33.997 42.605,35.357 42.448,36.833C42.301,38.219 42.993,40.043 43.242,41.269L78.455,32.019C78.187,30.652 78.007,29.401 77.992,28.293C77.973,26.943 78.592,25.948 79.2,25.25C79.504,24.902 79.736,24.822 79.975,24.65C80.175,24.507 80.406,24.391 80.487,24.253C80.525,24.189 80.511,24.139 80.486,24.016C80.456,23.868 80.352,23.84 80.24,23.853L80.241,23.853ZM77.136,25.603C76.595,26.265 76.453,26.754 76.42,27.268C74.061,27.612 66.527,29.248 62.437,30.183C57.682,31.271 48.187,33.593 48.259,33.838C48.331,34.082 57.867,31.852 62.642,30.76C66.723,29.826 74.07,28.194 76.412,27.507C76.411,27.813 76.427,28.135 76.428,28.524C76.434,30.219 76.677,30.809 76.744,31.113L43.898,39.327C43.785,39.023 43.717,38.776 43.666,38.544C44.364,38.55 46.502,38.144 47.642,37.864C49.122,37.501 54.046,36.109 54.025,35.908C54.003,35.707 48.97,37.031 47.447,37.405C46.327,37.68 44.273,38.083 43.631,38.35C43.555,37.895 43.566,37.473 43.608,36.811C43.709,35.216 44.439,34.253 44.559,34.071L77.136,25.603ZM57.551,33.36C53.406,34.27 45.182,35.934 45.201,36.291C45.221,36.648 53.577,34.861 57.722,33.95C62.325,32.939 71.533,30.767 70.879,30.652C70.225,30.538 61.866,32.412 57.551,33.36Z" style="fill:rgb(222,205,135);"/>
        <path id="path4171" d="M43.587,4.375L9.847,10.939C9.847,10.939 7.626,13.455 7.661,16.046C7.695,18.564 7.991,20.06 8.712,20.782C9.763,21.514 42.241,43.483 42.241,43.483L81.378,33.185C81.782,32.689 81.484,32.31 81.184,31.932L78.189,30.586L78.45,31.955C66.919,35.016 54.743,38.174 43.034,41.08C42.875,40.402 42.321,38.504 42.269,37.841C42.07,35.308 43.753,32.993 43.975,32.699L80.97,23.935C81.375,23.39 81.26,22.669 80.825,22.244L43.587,4.375ZM43.492,5.552L78.694,22.664L43.23,31.535C43.23,31.535 40.554,34.21 40.787,37.789C40.873,39.102 41.566,40.942 41.694,41.441L10.055,20.341C9.409,19.67 9.202,18.311 9.17,15.96C9.15,14.438 10.347,12.39 10.528,12.232L43.492,5.552ZM11.122,12.435C10.936,12.811 21.17,18.885 26.297,21.938C31.723,25.17 42.296,31.699 42.781,31.289C43.267,30.88 32.228,24.538 26.848,21.335C21.675,18.254 11.308,12.058 11.122,12.435Z" style="fill:rgb(170,0,0);"/>
    </g>
</svg>
